femtoRV/cores/divider_ASM/simulation/peripheral_div_TB.vcd
$date
	Thu Apr 24 15:56:48 2025
$end
$version
	Icarus Verilog
$end
$timescale
	1ps
$end
$scope module peripheral_div_TB $end
$scope module uut $end
$var wire 4 ! addr [3:0] $end
$var wire 1 " clk $end
$var wire 1 # cs $end
$var wire 16 $ d_in [15:0] $end
$var wire 1 % rd $end
$var wire 1 & rst $end
$var wire 1 ' wr $end
$var wire 1 ( done $end
$var wire 16 ) C [15:0] $end
$var reg 16 * A [15:0] $end
$var reg 16 + B [15:0] $end
$var reg 16 , d_out [15:0] $end
$var reg 1 - init $end
$var reg 6 . s [5:0] $end
$scope module d_16 $end
$var wire 16 / A [15:0] $end
$var wire 16 0 B [15:0] $end
$var wire 1 " clk $end
$var wire 1 - init_in $end
$var wire 1 & rst $end
$var wire 1 1 z $end
$var wire 1 ( done $end
$var wire 1 2 SH $end
$var wire 16 3 Result_Sub [15:0] $end
$var wire 16 4 Result [15:0] $end
$var wire 16 5 Reg_A [15:0] $end
$var wire 1 6 MSB $end
$var wire 1 7 LDA $end
$var wire 1 8 INIT $end
$var wire 1 9 DV0 $end
$var wire 1 : DEC $end
$scope module ctl_dv $end
$var wire 1 " clk $end
$var wire 1 & rst $end
$var wire 1 - start $end
$var wire 1 1 z $end
$var wire 1 6 MSB $end
$var reg 1 : DEC $end
$var reg 1 ( DONE $end
$var reg 1 9 DV0 $end
$var reg 1 8 INIT $end
$var reg 1 7 LDA $end
$var reg 1 2 SH $end
$var reg 3 ; state [2:0] $end
$upscope $end
$scope module ctr_dv $end
$var wire 1 : DEC $end
$var wire 1 " clk $end
$var wire 1 8 rst $end
$var reg 5 < cont [4:0] $end
$var reg 1 1 z $end
$upscope $end
$scope module fr $end
$var wire 1 : DEC $end
$var wire 1 " clk $end
$var wire 1 8 rst $end
$var wire 1 6 MSB $end
$var reg 16 = Result [15:0] $end
$upscope $end
$scope module lsr_d $end
$var wire 16 > DV_in [15:0] $end
$var wire 1 8 INIT $end
$var wire 1 7 LDA $end
$var wire 1 2 SH $end
$var wire 1 " clk $end
$var wire 1 ? rst $end
$var wire 16 @ Result [15:0] $end
$var reg 16 A A [15:0] $end
$var reg 16 B DV [15:0] $end
$upscope $end
$scope module sb $end
$var wire 1 9 DV0 $end
$var wire 1 " clk $end
$var wire 16 C in_A [15:0] $end
$var wire 16 D in_B [15:0] $end
$var wire 1 & rst $end
$var reg 1 6 MSB $end
$var reg 16 E Result [15:0] $end
$upscope $end
$upscope $end
$upscope $end
$upscope $end
$enddefinitions $end
#0
$dumpvars
b0 E
b0x000xx D
b0 C
b0x000xx B
b0 A
b0 @
0?
b0x000xx >
bx =
b10000 <
bx ;
0:
09
18
07
06
b0 5
bx 4
b0 3
02
01
b0x000xx 0
b0x000xx /
b1 .
x-
b0 ,
b0x000xx +
b0x000xx *
bx )
0(
1'
x&
0%
b100011 $
1#
0"
b0 !
$end
#10000
b0 ;
b0 )
b0 4
b0 =
1"
#20000
0-
b100011 *
b100011 /
b100011 >
0"
#30000
1"
#40000
b100011 B
0"
#50000
1"
#60000
0"
#70000
1"
#80000
0"
#90000
1"
#100000
0"
#110000
1"
#120000
0"
#130000
1"
#140000
0"
#150000
1"
#160000
0"
#170000
b1010 $
1"
#180000
b1010 *
b1010 /
b1010 >
0"
#190000
1"
#200000
b1010 B
0"
#210000
1"
#220000
0"
#230000
1"
#240000
0"
#250000
b10 .
b10 !
b100 $
1"
#260000
16
b100 +
b100 0
b100 D
0"
#270000
1"
#280000
0"
#290000
1"
#300000
0"
#310000
1"
#320000
0"
#330000
b100 .
b100 !
b1 $
1"
#340000
1-
0"
#350000
1:
12
08
b1 ;
1"
#360000
b10100 B
b1111 <
0"
#370000
0:
02
b10 ;
1"
#380000
0"
#390000
1:
12
b1 ;
1"
#400000
b101000 B
b1110 <
0"
#410000
0:
02
b1000 .
b10 ;
0'
1%
b110 !
b0 $
1"
#420000
0-
0"
#430000
1:
12
b1 ;
1"
#440000
b1010000 B
b1101 <
0"
#450000
0:
02
b10 ;
1"
#460000
0"
#470000
1:
12
b1 ;
1"
#480000
b10100000 B
b1100 <
0"
#490000
0:
02
b10 ;
1"
#500000
0"
#510000
1:
12
b1 ;
1"
#520000
b101000000 B
b1011 <
0"
#530000
0:
02
b10 ;
1"
#540000
0"
#550000
1:
12
b1 ;
1"
#560000
b1010000000 B
b1010 <
0"
#570000
0:
02
b10 ;
1"
#580000
0"
#590000
1:
12
b1 ;
1"
#600000
b10100000000 B
b1001 <
0"
#610000
0:
02
b10 ;
1"
#620000
0"
#630000
1:
12
b1 ;
1"
#640000
b101000000000 B
b1000 <
0"
#650000
0:
02
b10 ;
1"
#660000
0"
#670000
1:
12
b1 ;
1"
#680000
b1010000000000 B
b111 <
0"
#690000
0:
02
b10 ;
1"
#700000
0"
#710000
1:
12
b1 ;
1"
#720000
b10100000000000 B
b110 <
0"
#730000
0:
02
b10 ;
1"
#740000
0"
#750000
1:
12
b1 ;
1"
#760000
b101000000000000 B
b101 <
0"
#770000
0:
02
b10 ;
1"
#780000
0"
#790000
1:
12
b1 ;
1"
#800000
b1010000000000000 B
b100 <
0"
#810000
0:
02
b10 ;
1"
#820000
0"
#830000
1:
12
b1 ;
1"
#840000
b1 5
b1 A
b1 C
b100000000000000 B
b11 <
0"
#850000
0:
02
b10 ;
1"
#860000
0"
#870000
1:
12
b1 ;
1"
#880000
b10 5
b10 A
b10 C
b1000000000000000 B
b10 <
0"
#890000
0:
02
b10 ;
1"
#900000
0"
#910000
1:
12
b1 ;
1"
#920000
06
b101 5
b101 A
b101 C
b0 B
b1 <
0"
#930000
0:
02
b10 ;
b1 )
b1 4
b1 =
1"
#940000
0"
#950000
19
b11 ;
1"
#960000
b1 3
b1 @
b1 E
0"
#970000
1:
12
b1 ;
1"
#980000
11
b0 <
b110 3
b110 @
b110 E
b1010 5
b1010 A
b1010 C
0"
#990000
0:
02
09
b11 )
b11 4
b11 =
b10 ;
1"
#1000000
0"
#1010000
1(
b100 ;
1"
#1020000
b1 ,
0"
