tinytapeout/cores/mult_ASM/simulation/mult_32_TB.vcd
$date
	Mon Sep 16 09:16:04 2024
$end
$version
	Icarus Verilog
$end
$timescale
	1ps
$end
$scope module mult_32_TB $end
$scope module uut $end
$var wire 16 ! A [15:0] $end
$var wire 16 " B [15:0] $end
$var wire 1 # clk $end
$var wire 1 $ init $end
$var wire 1 % rst $end
$var wire 1 & w_z $end
$var wire 1 ' w_sh $end
$var wire 1 ( w_reset $end
$var wire 1 ) w_add $end
$var wire 16 * w_B [15:0] $end
$var wire 32 + w_A [31:0] $end
$var wire 32 , pp [31:0] $end
$var wire 1 - done $end
$scope module acc0 $end
$var wire 32 . A [31:0] $end
$var wire 1 # clk $end
$var wire 1 ( rst $end
$var wire 1 ) add $end
$var reg 32 / pp [31:0] $end
$upscope $end
$scope module comp0 $end
$var wire 1 & z $end
$var wire 16 0 B [15:0] $end
$var reg 1 1 tmp $end
$upscope $end
$scope module control0 $end
$var wire 1 # clk $end
$var wire 1 $ init $end
$var wire 1 2 lsb_B $end
$var wire 1 % rst $end
$var wire 1 & z $end
$var reg 1 ) add $end
$var reg 4 3 count [3:0] $end
$var reg 1 - done $end
$var reg 1 ( reset $end
$var reg 1 ' sh $end
$var reg 3 4 state [2:0] $end
$upscope $end
$scope module lsr0 $end
$var wire 1 # clk $end
$var wire 16 5 in_A [15:0] $end
$var wire 1 ( load $end
$var wire 1 ' shift $end
$var reg 31 6 s_A [30:0] $end
$upscope $end
$scope module rsr0 $end
$var wire 1 # clk $end
$var wire 16 7 in_B [15:0] $end
$var wire 1 ( load $end
$var wire 1 ' shift $end
$var reg 16 8 s_B [15:0] $end
$upscope $end
$upscope $end
$upscope $end
$enddefinitions $end
#0
$dumpvars
b11 8
b11 7
b101 6
b101 5
b0 4
bx 3
12
01
b11 0
b0 /
b101 .
0-
b0 ,
b101 +
b11 *
0)
1(
0'
0&
x%
0$
0#
b11 "
b101 !
$end
#10000
b0 3
1#
#20000
1%
0#
#30000
1#
#40000
0%
0#
#50000
1#
#60000
0#
#70000
1$
1#
#80000
0#
#90000
0(
b1 4
1#
#100000
0#
#110000
1)
0$
b11 4
1#
#120000
b101 ,
b101 /
0#
#130000
0)
1'
b10 4
1#
#140000
b1010 +
b1010 .
b1010 6
b1 *
b1 0
b1 8
0#
#150000
0'
b1 4
1#
#160000
0#
#170000
1)
b11 4
1#
#180000
b1111 ,
b1111 /
0#
#190000
0)
1'
b10 4
1#
#200000
02
1&
11
b0 *
b0 0
b0 8
b10100 +
b10100 .
b10100 6
0#
#210000
0'
1-
b100 4
1#
#220000
0#
#230000
b1 3
1#
#240000
0#
#250000
b10 3
1#
#260000
0#
#270000
b11 3
1#
#280000
0#
#290000
b100 3
1#
#300000
0#
#310000
b101 3
1#
#320000
0#
#330000
b110 3
1#
#340000
0#
#350000
b111 3
1#
#360000
0#
#370000
b1000 3
1#
#380000
0#
#390000
b1001 3
1#
#400000
0#
#410000
1(
0-
b0 4
b1010 3
1#
#420000
12
0&
01
b0 ,
b0 /
b101 +
b101 .
b101 6
b11 *
b11 0
b11 8
0#
#430000
b0 3
1#
